{
  "files": {
    "main.css": "/static/react/css/main.0d50b1e8.chunk.css",
    "main.js": "/static/react/js/main.88158cad.chunk.js",
    "main.js.map": "/static/react/js/main.88158cad.chunk.js.map",
    "runtime-main.js": "/static/react/js/runtime-main.3a44c33a.js",
    "runtime-main.js.map": "/static/react/js/runtime-main.3a44c33a.js.map",
    "js/2.2537ad5d.chunk.js": "/static/react/js/2.2537ad5d.chunk.js",
    "js/2.2537ad5d.chunk.js.map": "/static/react/js/2.2537ad5d.chunk.js.map",
    "../../templates/index.html": "/static/react/../../templates/index.html",
    "css/main.0d50b1e8.chunk.css.map": "/static/react/css/main.0d50b1e8.chunk.css.map",
    "js/2.2537ad5d.chunk.js.LICENSE.txt": "/static/react/js/2.2537ad5d.chunk.js.LICENSE.txt",
    "media/games-page-picture.jpg": "/static/react/media/games-page-picture.9813c34c.jpg",
    "media/Home.css": "/static/react/media/nba-teams.96a04b39.jpg",
    "media/picture-of-ayan.jpeg": "/static/react/media/picture-of-ayan.5f3d44c5.jpeg",
    "media/picture-of-jai.jpeg": "/static/react/media/picture-of-jai.d303f514.jpeg",
    "media/picture-of-kevin.jpg": "/static/react/media/picture-of-kevin.720cee7f.jpg",
    "media/picture-of-lina.jpg": "/static/react/media/picture-of-lina.518b3b87.jpg",
    "media/picture-of-shrey.png": "/static/react/media/picture-of-shrey.83f5566c.png",
    "media/players-page-picture.jpg": "/static/react/media/players-page-picture.d02fddfe.jpg",
    "media/teams-page-picture.jpg": "/static/react/media/teams-page-picture.f1cbb55d.jpg",
    "precache-manifest.068d05b3f0e5a37214061c834c202f98.js": "/static/react/precache-manifest.068d05b3f0e5a37214061c834c202f98.js",
    "service-worker.js": "/static/react/service-worker.js"
  },
  "entrypoints": [
    "js/runtime-main.3a44c33a.js",
    "js/2.2537ad5d.chunk.js",
    "css/main.0d50b1e8.chunk.css",
    "js/main.88158cad.chunk.js"
  ]
}